{
  "expoServerPort": 19000,
  "packagerPort": 19001,
  "packagerPid": 1036,
  "expoServerNgrokUrl": "https://nx-pb4.anonymous.cashapp.exp.direct",
  "packagerNgrokUrl": "https://packager.nx-pb4.anonymous.cashapp.exp.direct",
  "ngrokPid": 11452,
  "devToolsPort": 19002
}
